%YAML 1.1
%TAG !u! tag:unity3d.com,2011:
--- !u!114 &11400000
MonoBehaviour:
  m_ObjectHideFlags: 0
  m_PrefabParentObject: {fileID: 0}
  m_PrefabInternal: {fileID: 0}
  m_GameObject: {fileID: 0}
  m_Enabled: 1
  m_EditorHideFlags: 0
  m_Script: {fileID: 11500000, guid: f0d98f5be51926f46bc797504da5ad22, type: 3}
  m_Name: Players
  m_EditorClassIdentifier: 
  AtlasTexture: {fileID: 2800000, guid: ad15efc33b2518544b5b2e2750a13faa, type: 3}
  TilePxSize: {x: 16, y: 16}
  SliceOffset: {x: 0, y: 0}
  SlicePadding: {x: 0, y: 0}
  BackgroundColor: {r: 0.8039216, g: 0.8039216, b: 0.8039216, a: 0.8039216}
  VisualTileSize: {x: 32, y: 32}
  VisualTilePadding: 1
  TileRowLength: 16
  m_tileViews: []
  m_tilesetWidth: 16
  m_tilesetHeight: 4
  m_brushes: []
  m_tiles:
  - uv:
      serializedVersion: 2
      x: 0
      y: 0.75
      width: 0.0625
      height: 0.25
    collData:
      vertices: []
      type: 0
    paramContainer:
      m_paramList: []
    prefabData:
      prefab: {fileID: 0}
      offset: {x: 0, y: 0, z: 0}
      offsetMode: 0
      showTileWithPrefab: 0
      showPrefabPreviewInTilePalette: 0
    autilingGroup: 0
  - uv:
      serializedVersion: 2
      x: 0.0625
      y: 0.75
      width: 0.0625
      height: 0.25
    collData:
      vertices: []
      type: 0
    paramContainer:
      m_paramList: []
    prefabData:
      prefab: {fileID: 0}
      offset: {x: 0, y: 0, z: 0}
      offsetMode: 0
      showTileWithPrefab: 0
      showPrefabPreviewInTilePalette: 0
    autilingGroup: 0
  - uv:
      serializedVersion: 2
      x: 0.125
      y: 0.75
      width: 0.0625
      height: 0.25
    collData:
      vertices: []
      type: 0
    paramContainer:
      m_paramList: []
    prefabData:
      prefab: {fileID: 1574163110025600, guid: f1f9ee49a696c404fac4dd0cb0c87dbf, type: 2}
      offset: {x: 0, y: 0, z: 0}
      offsetMode: 0
      showTileWithPrefab: 0
      showPrefabPreviewInTilePalette: 0
    autilingGroup: 0
  - uv:
      serializedVersion: 2
      x: 0.1875
      y: 0.75
      width: 0.0625
      height: 0.25
    collData:
      vertices: []
      type: 0
    paramContainer:
      m_paramList: []
    prefabData:
      prefab: {fileID: 0}
      offset: {x: 0, y: 0, z: 0}
      offsetMode: 0
      showTileWithPrefab: 0
      showPrefabPreviewInTilePalette: 0
    autilingGroup: 0
  - uv:
      serializedVersion: 2
      x: 0.25
      y: 0.75
      width: 0.0625
      height: 0.25
    collData:
      vertices: []
      type: 0
    paramContainer:
      m_paramList: []
    prefabData:
      prefab: {fileID: 0}
      offset: {x: 0, y: 0, z: 0}
      offsetMode: 0
      showTileWithPrefab: 0
      showPrefabPreviewInTilePalette: 0
    autilingGroup: 0
  - uv:
      serializedVersion: 2
      x: 0.3125
      y: 0.75
      width: 0.0625
      height: 0.25
    collData:
      vertices: []
      type: 0
    paramContainer:
      m_paramList: []
    prefabData:
      prefab: {fileID: 0}
      offset: {x: 0, y: 0, z: 0}
      offsetMode: 0
      showTileWithPrefab: 0
      showPrefabPreviewInTilePalette: 0
    autilingGroup: 0
  - uv:
      serializedVersion: 2
      x: 0.375
      y: 0.75
      width: 0.0625
      height: 0.25
    collData:
      vertices: []
      type: 0
    paramContainer:
      m_paramList: []
    prefabData:
      prefab: {fileID: 0}
      offset: {x: 0, y: 0, z: 0}
      offsetMode: 0
      showTileWithPrefab: 0
      showPrefabPreviewInTilePalette: 0
    autilingGroup: 0
  - uv:
      serializedVersion: 2
      x: 0.4375
      y: 0.75
      width: 0.0625
      height: 0.25
    collData:
      vertices: []
      type: 0
    paramContainer:
      m_paramList: []
    prefabData:
      prefab: {fileID: 0}
      offset: {x: 0, y: 0, z: 0}
      offsetMode: 0
      showTileWithPrefab: 0
      showPrefabPreviewInTilePalette: 0
    autilingGroup: 0
  - uv:
      serializedVersion: 2
      x: 0.5
      y: 0.75
      width: 0.0625
      height: 0.25
    collData:
      vertices: []
      type: 0
    paramContainer:
      m_paramList: []
    prefabData:
      prefab: {fileID: 0}
      offset: {x: 0, y: 0, z: 0}
      offsetMode: 0
      showTileWithPrefab: 0
      showPrefabPreviewInTilePalette: 0
    autilingGroup: 0
  - uv:
      serializedVersion: 2
      x: 0.5625
      y: 0.75
      width: 0.0625
      height: 0.25
    collData:
      vertices: []
      type: 0
    paramContainer:
      m_paramList: []
    prefabData:
      prefab: {fileID: 0}
      offset: {x: 0, y: 0, z: 0}
      offsetMode: 0
      showTileWithPrefab: 0
      showPrefabPreviewInTilePalette: 0
    autilingGroup: 0
  - uv:
      serializedVersion: 2
      x: 0.625
      y: 0.75
      width: 0.0625
      height: 0.25
    collData:
      vertices: []
      type: 0
    paramContainer:
      m_paramList: []
    prefabData:
      prefab: {fileID: 0}
      offset: {x: 0, y: 0, z: 0}
      offsetMode: 0
      showTileWithPrefab: 0
      showPrefabPreviewInTilePalette: 0
    autilingGroup: 0
  - uv:
      serializedVersion: 2
      x: 0.6875
      y: 0.75
      width: 0.0625
      height: 0.25
    collData:
      vertices: []
      type: 0
    paramContainer:
      m_paramList: []
    prefabData:
      prefab: {fileID: 0}
      offset: {x: 0, y: 0, z: 0}
      offsetMode: 0
      showTileWithPrefab: 0
      showPrefabPreviewInTilePalette: 0
    autilingGroup: 0
  - uv:
      serializedVersion: 2
      x: 0.75
      y: 0.75
      width: 0.0625
      height: 0.25
    collData:
      vertices: []
      type: 0
    paramContainer:
      m_paramList: []
    prefabData:
      prefab: {fileID: 0}
      offset: {x: 0, y: 0, z: 0}
      offsetMode: 0
      showTileWithPrefab: 0
      showPrefabPreviewInTilePalette: 0
    autilingGroup: 0
  - uv:
      serializedVersion: 2
      x: 0.8125
      y: 0.75
      width: 0.0625
      height: 0.25
    collData:
      vertices: []
      type: 0
    paramContainer:
      m_paramList: []
    prefabData:
      prefab: {fileID: 0}
      offset: {x: 0, y: 0, z: 0}
      offsetMode: 0
      showTileWithPrefab: 0
      showPrefabPreviewInTilePalette: 0
    autilingGroup: 0
  - uv:
      serializedVersion: 2
      x: 0.875
      y: 0.75
      width: 0.0625
      height: 0.25
    collData:
      vertices: []
      type: 0
    paramContainer:
      m_paramList: []
    prefabData:
      prefab: {fileID: 0}
      offset: {x: 0, y: 0, z: 0}
      offsetMode: 0
      showTileWithPrefab: 0
      showPrefabPreviewInTilePalette: 0
    autilingGroup: 0
  - uv:
      serializedVersion: 2
      x: 0.9375
      y: 0.75
      width: 0.0625
      height: 0.25
    collData:
      vertices: []
      type: 0
    paramContainer:
      m_paramList: []
    prefabData:
      prefab: {fileID: 0}
      offset: {x: 0, y: 0, z: 0}
      offsetMode: 0
      showTileWithPrefab: 0
      showPrefabPreviewInTilePalette: 0
    autilingGroup: 0
  - uv:
      serializedVersion: 2
      x: 0
      y: 0.5
      width: 0.0625
      height: 0.25
    collData:
      vertices: []
      type: 0
    paramContainer:
      m_paramList: []
    prefabData:
      prefab: {fileID: 0}
      offset: {x: 0, y: 0, z: 0}
      offsetMode: 0
      showTileWithPrefab: 0
      showPrefabPreviewInTilePalette: 0
    autilingGroup: 0
  - uv:
      serializedVersion: 2
      x: 0.0625
      y: 0.5
      width: 0.0625
      height: 0.25
    collData:
      vertices: []
      type: 0
    paramContainer:
      m_paramList: []
    prefabData:
      prefab: {fileID: 0}
      offset: {x: 0, y: 0, z: 0}
      offsetMode: 0
      showTileWithPrefab: 0
      showPrefabPreviewInTilePalette: 0
    autilingGroup: 0
  - uv:
      serializedVersion: 2
      x: 0.125
      y: 0.5
      width: 0.0625
      height: 0.25
    collData:
      vertices: []
      type: 0
    paramContainer:
      m_paramList: []
    prefabData:
      prefab: {fileID: 0}
      offset: {x: 0, y: 0, z: 0}
      offsetMode: 0
      showTileWithPrefab: 0
      showPrefabPreviewInTilePalette: 0
    autilingGroup: 0
  - uv:
      serializedVersion: 2
      x: 0.1875
      y: 0.5
      width: 0.0625
      height: 0.25
    collData:
      vertices: []
      type: 0
    paramContainer:
      m_paramList: []
    prefabData:
      prefab: {fileID: 0}
      offset: {x: 0, y: 0, z: 0}
      offsetMode: 0
      showTileWithPrefab: 0
      showPrefabPreviewInTilePalette: 0
    autilingGroup: 0
  - uv:
      serializedVersion: 2
      x: 0.25
      y: 0.5
      width: 0.0625
      height: 0.25
    collData:
      vertices: []
      type: 0
    paramContainer:
      m_paramList: []
    prefabData:
      prefab: {fileID: 0}
      offset: {x: 0, y: 0, z: 0}
      offsetMode: 0
      showTileWithPrefab: 0
      showPrefabPreviewInTilePalette: 0
    autilingGroup: 0
  - uv:
      serializedVersion: 2
      x: 0.3125
      y: 0.5
      width: 0.0625
      height: 0.25
    collData:
      vertices: []
      type: 0
    paramContainer:
      m_paramList: []
    prefabData:
      prefab: {fileID: 0}
      offset: {x: 0, y: 0, z: 0}
      offsetMode: 0
      showTileWithPrefab: 0
      showPrefabPreviewInTilePalette: 0
    autilingGroup: 0
  - uv:
      serializedVersion: 2
      x: 0.375
      y: 0.5
      width: 0.0625
      height: 0.25
    collData:
      vertices: []
      type: 0
    paramContainer:
      m_paramList: []
    prefabData:
      prefab: {fileID: 0}
      offset: {x: 0, y: 0, z: 0}
      offsetMode: 0
      showTileWithPrefab: 0
      showPrefabPreviewInTilePalette: 0
    autilingGroup: 0
  - uv:
      serializedVersion: 2
      x: 0.4375
      y: 0.5
      width: 0.0625
      height: 0.25
    collData:
      vertices: []
      type: 0
    paramContainer:
      m_paramList: []
    prefabData:
      prefab: {fileID: 0}
      offset: {x: 0, y: 0, z: 0}
      offsetMode: 0
      showTileWithPrefab: 0
      showPrefabPreviewInTilePalette: 0
    autilingGroup: 0
  - uv:
      serializedVersion: 2
      x: 0.5
      y: 0.5
      width: 0.0625
      height: 0.25
    collData:
      vertices: []
      type: 0
    paramContainer:
      m_paramList: []
    prefabData:
      prefab: {fileID: 0}
      offset: {x: 0, y: 0, z: 0}
      offsetMode: 0
      showTileWithPrefab: 0
      showPrefabPreviewInTilePalette: 0
    autilingGroup: 0
  - uv:
      serializedVersion: 2
      x: 0.5625
      y: 0.5
      width: 0.0625
      height: 0.25
    collData:
      vertices: []
      type: 0
    paramContainer:
      m_paramList: []
    prefabData:
      prefab: {fileID: 0}
      offset: {x: 0, y: 0, z: 0}
      offsetMode: 0
      showTileWithPrefab: 0
      showPrefabPreviewInTilePalette: 0
    autilingGroup: 0
  - uv:
      serializedVersion: 2
      x: 0.625
      y: 0.5
      width: 0.0625
      height: 0.25
    collData:
      vertices: []
      type: 0
    paramContainer:
      m_paramList: []
    prefabData:
      prefab: {fileID: 0}
      offset: {x: 0, y: 0, z: 0}
      offsetMode: 0
      showTileWithPrefab: 0
      showPrefabPreviewInTilePalette: 0
    autilingGroup: 0
  - uv:
      serializedVersion: 2
      x: 0.6875
      y: 0.5
      width: 0.0625
      height: 0.25
    collData:
      vertices: []
      type: 0
    paramContainer:
      m_paramList: []
    prefabData:
      prefab: {fileID: 0}
      offset: {x: 0, y: 0, z: 0}
      offsetMode: 0
      showTileWithPrefab: 0
      showPrefabPreviewInTilePalette: 0
    autilingGroup: 0
  - uv:
      serializedVersion: 2
      x: 0.75
      y: 0.5
      width: 0.0625
      height: 0.25
    collData:
      vertices: []
      type: 0
    paramContainer:
      m_paramList: []
    prefabData:
      prefab: {fileID: 0}
      offset: {x: 0, y: 0, z: 0}
      offsetMode: 0
      showTileWithPrefab: 0
      showPrefabPreviewInTilePalette: 0
    autilingGroup: 0
  - uv:
      serializedVersion: 2
      x: 0.8125
      y: 0.5
      width: 0.0625
      height: 0.25
    collData:
      vertices: []
      type: 0
    paramContainer:
      m_paramList: []
    prefabData:
      prefab: {fileID: 0}
      offset: {x: 0, y: 0, z: 0}
      offsetMode: 0
      showTileWithPrefab: 0
      showPrefabPreviewInTilePalette: 0
    autilingGroup: 0
  - uv:
      serializedVersion: 2
      x: 0.875
      y: 0.5
      width: 0.0625
      height: 0.25
    collData:
      vertices: []
      type: 0
    paramContainer:
      m_paramList: []
    prefabData:
      prefab: {fileID: 0}
      offset: {x: 0, y: 0, z: 0}
      offsetMode: 0
      showTileWithPrefab: 0
      showPrefabPreviewInTilePalette: 0
    autilingGroup: 0
  - uv:
      serializedVersion: 2
      x: 0.9375
      y: 0.5
      width: 0.0625
      height: 0.25
    collData:
      vertices: []
      type: 0
    paramContainer:
      m_paramList: []
    prefabData:
      prefab: {fileID: 0}
      offset: {x: 0, y: 0, z: 0}
      offsetMode: 0
      showTileWithPrefab: 0
      showPrefabPreviewInTilePalette: 0
    autilingGroup: 0
  - uv:
      serializedVersion: 2
      x: 0
      y: 0.25
      width: 0.0625
      height: 0.25
    collData:
      vertices: []
      type: 0
    paramContainer:
      m_paramList: []
    prefabData:
      prefab: {fileID: 1794183746446084, guid: 16ed453682905654eb081dfd8a38c14a, type: 2}
      offset: {x: 0, y: 0, z: 0}
      offsetMode: 0
      showTileWithPrefab: 0
      showPrefabPreviewInTilePalette: 0
    autilingGroup: 0
  - uv:
      serializedVersion: 2
      x: 0.0625
      y: 0.25
      width: 0.0625
      height: 0.25
    collData:
      vertices: []
      type: 0
    paramContainer:
      m_paramList: []
    prefabData:
      prefab: {fileID: 0}
      offset: {x: 0, y: 0, z: 0}
      offsetMode: 0
      showTileWithPrefab: 0
      showPrefabPreviewInTilePalette: 0
    autilingGroup: 0
  - uv:
      serializedVersion: 2
      x: 0.125
      y: 0.25
      width: 0.0625
      height: 0.25
    collData:
      vertices: []
      type: 0
    paramContainer:
      m_paramList: []
    prefabData:
      prefab: {fileID: 0}
      offset: {x: 0, y: 0, z: 0}
      offsetMode: 0
      showTileWithPrefab: 0
      showPrefabPreviewInTilePalette: 0
    autilingGroup: 0
  - uv:
      serializedVersion: 2
      x: 0.1875
      y: 0.25
      width: 0.0625
      height: 0.25
    collData:
      vertices: []
      type: 0
    paramContainer:
      m_paramList: []
    prefabData:
      prefab: {fileID: 0}
      offset: {x: 0, y: 0, z: 0}
      offsetMode: 0
      showTileWithPrefab: 0
      showPrefabPreviewInTilePalette: 0
    autilingGroup: 0
  - uv:
      serializedVersion: 2
      x: 0.25
      y: 0.25
      width: 0.0625
      height: 0.25
    collData:
      vertices: []
      type: 0
    paramContainer:
      m_paramList: []
    prefabData:
      prefab: {fileID: 0}
      offset: {x: 0, y: 0, z: 0}
      offsetMode: 0
      showTileWithPrefab: 0
      showPrefabPreviewInTilePalette: 0
    autilingGroup: 0
  - uv:
      serializedVersion: 2
      x: 0.3125
      y: 0.25
      width: 0.0625
      height: 0.25
    collData:
      vertices: []
      type: 0
    paramContainer:
      m_paramList: []
    prefabData:
      prefab: {fileID: 0}
      offset: {x: 0, y: 0, z: 0}
      offsetMode: 0
      showTileWithPrefab: 0
      showPrefabPreviewInTilePalette: 0
    autilingGroup: 0
  - uv:
      serializedVersion: 2
      x: 0.375
      y: 0.25
      width: 0.0625
      height: 0.25
    collData:
      vertices: []
      type: 0
    paramContainer:
      m_paramList: []
    prefabData:
      prefab: {fileID: 0}
      offset: {x: 0, y: 0, z: 0}
      offsetMode: 0
      showTileWithPrefab: 0
      showPrefabPreviewInTilePalette: 0
    autilingGroup: 0
  - uv:
      serializedVersion: 2
      x: 0.4375
      y: 0.25
      width: 0.0625
      height: 0.25
    collData:
      vertices: []
      type: 0
    paramContainer:
      m_paramList: []
    prefabData:
      prefab: {fileID: 0}
      offset: {x: 0, y: 0, z: 0}
      offsetMode: 0
      showTileWithPrefab: 0
      showPrefabPreviewInTilePalette: 0
    autilingGroup: 0
  - uv:
      serializedVersion: 2
      x: 0.5
      y: 0.25
      width: 0.0625
      height: 0.25
    collData:
      vertices: []
      type: 0
    paramContainer:
      m_paramList: []
    prefabData:
      prefab: {fileID: 0}
      offset: {x: 0, y: 0, z: 0}
      offsetMode: 0
      showTileWithPrefab: 0
      showPrefabPreviewInTilePalette: 0
    autilingGroup: 0
  - uv:
      serializedVersion: 2
      x: 0.5625
      y: 0.25
      width: 0.0625
      height: 0.25
    collData:
      vertices: []
      type: 0
    paramContainer:
      m_paramList: []
    prefabData:
      prefab: {fileID: 0}
      offset: {x: 0, y: 0, z: 0}
      offsetMode: 0
      showTileWithPrefab: 0
      showPrefabPreviewInTilePalette: 0
    autilingGroup: 0
  - uv:
      serializedVersion: 2
      x: 0.625
      y: 0.25
      width: 0.0625
      height: 0.25
    collData:
      vertices: []
      type: 0
    paramContainer:
      m_paramList: []
    prefabData:
      prefab: {fileID: 0}
      offset: {x: 0, y: 0, z: 0}
      offsetMode: 0
      showTileWithPrefab: 0
      showPrefabPreviewInTilePalette: 0
    autilingGroup: 0
  - uv:
      serializedVersion: 2
      x: 0.6875
      y: 0.25
      width: 0.0625
      height: 0.25
    collData:
      vertices: []
      type: 0
    paramContainer:
      m_paramList: []
    prefabData:
      prefab: {fileID: 0}
      offset: {x: 0, y: 0, z: 0}
      offsetMode: 0
      showTileWithPrefab: 0
      showPrefabPreviewInTilePalette: 0
    autilingGroup: 0
  - uv:
      serializedVersion: 2
      x: 0.75
      y: 0.25
      width: 0.0625
      height: 0.25
    collData:
      vertices: []
      type: 0
    paramContainer:
      m_paramList: []
    prefabData:
      prefab: {fileID: 0}
      offset: {x: 0, y: 0, z: 0}
      offsetMode: 0
      showTileWithPrefab: 0
      showPrefabPreviewInTilePalette: 0
    autilingGroup: 0
  - uv:
      serializedVersion: 2
      x: 0.8125
      y: 0.25
      width: 0.0625
      height: 0.25
    collData:
      vertices: []
      type: 0
    paramContainer:
      m_paramList: []
    prefabData:
      prefab: {fileID: 0}
      offset: {x: 0, y: 0, z: 0}
      offsetMode: 0
      showTileWithPrefab: 0
      showPrefabPreviewInTilePalette: 0
    autilingGroup: 0
  - uv:
      serializedVersion: 2
      x: 0.875
      y: 0.25
      width: 0.0625
      height: 0.25
    collData:
      vertices: []
      type: 0
    paramContainer:
      m_paramList: []
    prefabData:
      prefab: {fileID: 0}
      offset: {x: 0, y: 0, z: 0}
      offsetMode: 0
      showTileWithPrefab: 0
      showPrefabPreviewInTilePalette: 0
    autilingGroup: 0
  - uv:
      serializedVersion: 2
      x: 0.9375
      y: 0.25
      width: 0.0625
      height: 0.25
    collData:
      vertices: []
      type: 0
    paramContainer:
      m_paramList: []
    prefabData:
      prefab: {fileID: 0}
      offset: {x: 0, y: 0, z: 0}
      offsetMode: 0
      showTileWithPrefab: 0
      showPrefabPreviewInTilePalette: 0
    autilingGroup: 0
  - uv:
      serializedVersion: 2
      x: 0
      y: 0
      width: 0.0625
      height: 0.25
    collData:
      vertices: []
      type: 0
    paramContainer:
      m_paramList: []
    prefabData:
      prefab: {fileID: 0}
      offset: {x: 0, y: 0, z: 0}
      offsetMode: 0
      showTileWithPrefab: 0
      showPrefabPreviewInTilePalette: 0
    autilingGroup: 0
  - uv:
      serializedVersion: 2
      x: 0.0625
      y: 0
      width: 0.0625
      height: 0.25
    collData:
      vertices: []
      type: 0
    paramContainer:
      m_paramList: []
    prefabData:
      prefab: {fileID: 0}
      offset: {x: 0, y: 0, z: 0}
      offsetMode: 0
      showTileWithPrefab: 0
      showPrefabPreviewInTilePalette: 0
    autilingGroup: 0
  - uv:
      serializedVersion: 2
      x: 0.125
      y: 0
      width: 0.0625
      height: 0.25
    collData:
      vertices: []
      type: 0
    paramContainer:
      m_paramList: []
    prefabData:
      prefab: {fileID: 0}
      offset: {x: 0, y: 0, z: 0}
      offsetMode: 0
      showTileWithPrefab: 0
      showPrefabPreviewInTilePalette: 0
    autilingGroup: 0
  - uv:
      serializedVersion: 2
      x: 0.1875
      y: 0
      width: 0.0625
      height: 0.25
    collData:
      vertices: []
      type: 0
    paramContainer:
      m_paramList: []
    prefabData:
      prefab: {fileID: 0}
      offset: {x: 0, y: 0, z: 0}
      offsetMode: 0
      showTileWithPrefab: 0
      showPrefabPreviewInTilePalette: 0
    autilingGroup: 0
  - uv:
      serializedVersion: 2
      x: 0.25
      y: 0
      width: 0.0625
      height: 0.25
    collData:
      vertices: []
      type: 0
    paramContainer:
      m_paramList: []
    prefabData:
      prefab: {fileID: 0}
      offset: {x: 0, y: 0, z: 0}
      offsetMode: 0
      showTileWithPrefab: 0
      showPrefabPreviewInTilePalette: 0
    autilingGroup: 0
  - uv:
      serializedVersion: 2
      x: 0.3125
      y: 0
      width: 0.0625
      height: 0.25
    collData:
      vertices: []
      type: 0
    paramContainer:
      m_paramList: []
    prefabData:
      prefab: {fileID: 0}
      offset: {x: 0, y: 0, z: 0}
      offsetMode: 0
      showTileWithPrefab: 0
      showPrefabPreviewInTilePalette: 0
    autilingGroup: 0
  - uv:
      serializedVersion: 2
      x: 0.375
      y: 0
      width: 0.0625
      height: 0.25
    collData:
      vertices: []
      type: 0
    paramContainer:
      m_paramList: []
    prefabData:
      prefab: {fileID: 0}
      offset: {x: 0, y: 0, z: 0}
      offsetMode: 0
      showTileWithPrefab: 0
      showPrefabPreviewInTilePalette: 0
    autilingGroup: 0
  - uv:
      serializedVersion: 2
      x: 0.4375
      y: 0
      width: 0.0625
      height: 0.25
    collData:
      vertices: []
      type: 0
    paramContainer:
      m_paramList: []
    prefabData:
      prefab: {fileID: 0}
      offset: {x: 0, y: 0, z: 0}
      offsetMode: 0
      showTileWithPrefab: 0
      showPrefabPreviewInTilePalette: 0
    autilingGroup: 0
  - uv:
      serializedVersion: 2
      x: 0.5
      y: 0
      width: 0.0625
      height: 0.25
    collData:
      vertices: []
      type: 0
    paramContainer:
      m_paramList: []
    prefabData:
      prefab: {fileID: 0}
      offset: {x: 0, y: 0, z: 0}
      offsetMode: 0
      showTileWithPrefab: 0
      showPrefabPreviewInTilePalette: 0
    autilingGroup: 0
  - uv:
      serializedVersion: 2
      x: 0.5625
      y: 0
      width: 0.0625
      height: 0.25
    collData:
      vertices: []
      type: 0
    paramContainer:
      m_paramList: []
    prefabData:
      prefab: {fileID: 0}
      offset: {x: 0, y: 0, z: 0}
      offsetMode: 0
      showTileWithPrefab: 0
      showPrefabPreviewInTilePalette: 0
    autilingGroup: 0
  - uv:
      serializedVersion: 2
      x: 0.625
      y: 0
      width: 0.0625
      height: 0.25
    collData:
      vertices: []
      type: 0
    paramContainer:
      m_paramList: []
    prefabData:
      prefab: {fileID: 0}
      offset: {x: 0, y: 0, z: 0}
      offsetMode: 0
      showTileWithPrefab: 0
      showPrefabPreviewInTilePalette: 0
    autilingGroup: 0
  - uv:
      serializedVersion: 2
      x: 0.6875
      y: 0
      width: 0.0625
      height: 0.25
    collData:
      vertices: []
      type: 0
    paramContainer:
      m_paramList: []
    prefabData:
      prefab: {fileID: 0}
      offset: {x: 0, y: 0, z: 0}
      offsetMode: 0
      showTileWithPrefab: 0
      showPrefabPreviewInTilePalette: 0
    autilingGroup: 0
  - uv:
      serializedVersion: 2
      x: 0.75
      y: 0
      width: 0.0625
      height: 0.25
    collData:
      vertices: []
      type: 0
    paramContainer:
      m_paramList: []
    prefabData:
      prefab: {fileID: 0}
      offset: {x: 0, y: 0, z: 0}
      offsetMode: 0
      showTileWithPrefab: 0
      showPrefabPreviewInTilePalette: 0
    autilingGroup: 0
  - uv:
      serializedVersion: 2
      x: 0.8125
      y: 0
      width: 0.0625
      height: 0.25
    collData:
      vertices: []
      type: 0
    paramContainer:
      m_paramList: []
    prefabData:
      prefab: {fileID: 0}
      offset: {x: 0, y: 0, z: 0}
      offsetMode: 0
      showTileWithPrefab: 0
      showPrefabPreviewInTilePalette: 0
    autilingGroup: 0
  - uv:
      serializedVersion: 2
      x: 0.875
      y: 0
      width: 0.0625
      height: 0.25
    collData:
      vertices: []
      type: 0
    paramContainer:
      m_paramList: []
    prefabData:
      prefab: {fileID: 0}
      offset: {x: 0, y: 0, z: 0}
      offsetMode: 0
      showTileWithPrefab: 0
      showPrefabPreviewInTilePalette: 0
    autilingGroup: 0
  - uv:
      serializedVersion: 2
      x: 0.9375
      y: 0
      width: 0.0625
      height: 0.25
    collData:
      vertices: []
      type: 0
    paramContainer:
      m_paramList: []
    prefabData:
      prefab: {fileID: 0}
      offset: {x: 0, y: 0, z: 0}
      offsetMode: 0
      showTileWithPrefab: 0
      showPrefabPreviewInTilePalette: 0
    autilingGroup: 0
  m_pixelsPerUnit: 1
  m_brushGroupNames:
  - Default
  - 
  - 
  - 
  - 
  - 
  - 
  - 
  - 
  - 
  - 
  - 
  - 
  - 
  - 
  - 
  - 
  - 
  - 
  - 
  - 
  - 
  - 
  - 
  - 
  - 
  - 
  - 
  - 
  - 
  - 
  - 
  m_brushGroupAutotilingMatrix: 01000000020000000400000008000000100000002000000040000000800000000001000000020000000400000008000000100000002000000040000000800000000001000000020000000400000008000000100000002000000040000000800000000001000000020000000400000008000000100000002000000040
  m_brushTypeMaskOptions: []
  m_brushTypeMask: -1
